Clean Lab Values
…
We count the rows by lab department, and then print them in descending order:

labDeptCount <- dplyr::count(labs.df,LAB_DEPT) %>% dplyr::arrange(desc(n))
labDeptCount

## # A tibble: 41 x 2
##               LAB_DEPT       n
##                 <fctr>   <int>
##  1       6 SOUTH TOWER 1384877
##  2       7 SOUTH TOWER  975091
##  3         7 EAST PICU  625878
##  4         7 WEST PICU  414436
##  5             UNKNOWN  239026
##  6         6 NORTHWEST    7475
##  7 MAIN EMERGENCY DEPT    6073
##  8      PERIOP COMPLEX    5437
##  9       8 SOUTH TOWER     682
## 10       3 SOUTH TOWER     575
## # ... with 31 more rows
…
