Exploratory and Predictive Analysis of Animal Use in Biomedical Research in the US
…
We see a huge decline from 2009 to 2015.

Next, I want to find out which states contributed the most to the decline observed in the first plot. I calculated the mean and standard deviation over the years for each state and sorted them in decreasing order of SD. Noticing that Arizona seems to have a higher SD than mean, I calculated the coefficient of variability and sorted based on this.

library(dplyr)
#Std dev of total for all states
data.by.state.year <- datafr %>%
  filter(State != "REPORT TOTAL") %>%
  group_by(State, Year) %>%
  summarise(Total = sum(Total))
  
state.std.dev <- summarise(data.by.state.year, mean = mean(Total), sd = sd(Total))
state.std.dev[order(state.std.dev$sd, decreasing = TRUE),]

## # A tibble: 52 x 3
##    State    mean     sd
##    <chr>   <dbl>  <dbl>
##  1 AZ     16261. 35984.
##  2 NY     45696. 25676.
##  3 CA    103133. 22675.
##  4 KS     11863. 20574.
##  5 PA     50591. 20247.
##  6 OH     64393. 18341.
##  7 IA     30172  15683.
##  8 NJ     67210. 13946.
##  9 MO     36277. 13905.
## 10 MD     58124. 13290.
## # ... with 42 more rows

state.std.dev <- state.std.dev %>% mutate(cv = sd/mean) %>% 
                  arrange(desc(cv))
state.std.dev

## # A tibble: 52 x 4
##    State   mean     sd    cv
##    <chr>  <dbl>  <dbl> <dbl>
##  1 AZ    16261. 35984. 2.21 
##  2 KS    11863. 20574. 1.73 
##  3 WV     2116.  2936. 1.39 
##  4 NE     4406.  3886. 0.882
##  5 AK      636.   468. 0.735
##  6 HI      337    227. 0.675
##  7 DC     7995.  5279. 0.660
##  8 WY      543.   307. 0.565
##  9 NY    45696. 25676. 0.562
## 10 IN    17136.  9132. 0.533
## # ... with 42 more rows
…
