BMIN503 Final Project: Disparities in managing migraine pain in the pediatric ER
…
Data Quality: Evaluate missingess

The data set contains 15% missing fields. The top three variables with missing data are all related to a second line medication being given. This is because not everyone receives a second line medication, so those cells will be empty. At one end of the spectrum, 23.3% (865) of cases had 4 values missing whereas at the other end, 9.4% (349) of cases had 0 values missing. A total of 7 cases had the max count of 17 values missing. Data visualizations suggest a gradiant of missing data amongst demographic groups. The groups with the highest pct of theses missing variables is NH Black (87.52%), Hispanic (84.47%), Other (79.56%), then NH White (73.20).

pct_miss(data_all_na) # %15 total missing data

## [1] 15.13844

table_all_missing_var <-miss_var_summary(data_all_na) # table of all missing variables with n and pct, in descending order
print(table_all_missing_var)

## # A tibble: 33 x 3
##    variable                          n_miss pct_miss
##    <chr>                              <int>    <dbl>
##  1 X2nd.Med.Reassessment               2973     80.2
##  2 X1st.Med.Given.to.2nd.Med.Ordered   2607     70.3
##  3 Initial.2nd.Med.Given               2600     70.1
##  4 HCG.Result                          1873     50.5
##  5 X1st.Med.Reassessment               1278     34.5
##  6 Toradol.Given                       1153     31.1
##  7 Bolus.Start                          846     22.8
##  8 Reglan.Start                         771     20.8
##  9 Reglan.Given                         771     20.8
## 10 Reglan.Infusion.Time                 771     20.8
## # ... with 23 more rows
…
miss_case_sum <- miss_case_summary(data_all_na) #individual cases listed by total missing values
print(miss_case_sum)

## # A tibble: 3,709 x 3
##     case n_miss pct_miss
##    <int>  <int>    <dbl>
##  1     2     17     51.5
##  2   682     17     51.5
##  3  2018     17     51.5
##  4  2049     17     51.5
##  5  3067     17     51.5
##  6  3214     17     51.5
##  7  3308     17     51.5
##  8    14     16     48.5
##  9    18     16     48.5
## 10    67     16     48.5
## # ... with 3,699 more rows
…
data_all_na %>%
  group_by(Race.Ethnicity) %>%
  miss_var_summary()

## # A tibble: 128 x 4
##    Race.Ethnicity variable                          n_miss pct_miss
##    <fct>          <chr>                              <int>    <dbl>
##  1 OTHER          X2nd.Med.Reassessment                144     79.6
##  2 OTHER          X1st.Med.Given.to.2nd.Med.Ordered    128     70.7
##  3 OTHER          Initial.2nd.Med.Given                127     70.2
##  4 OTHER          HCG.Result                           102     56.4
##  5 OTHER          X1st.Med.Reassessment                 69     38.1
##  6 OTHER          Toradol.Given                         66     36.5
##  7 OTHER          Bolus.Start                           52     28.7
##  8 OTHER          Reglan.Start                          42     23.2
##  9 OTHER          Reglan.Given                          42     23.2
## 10 OTHER          Reglan.Infusion.Time                  42     23.2
## # ... with 118 more rows
…
data_select %>%
  group_by(Race.Ethnicity) %>%
  miss_var_summary() #summarizing missing data in select variables across demographic groups

## # A tibble: 32 x 4
##    Race.Ethnicity     variable                n_miss pct_miss
##    <fct>              <chr>                    <int>    <dbl>
##  1 OTHER              Arrive.to.1st.Med.Given     29    16.0 
##  2 OTHER              Payer.Type                   6     3.31
##  3 OTHER              Pathway                      0     0   
##  4 OTHER              Sex                          0     0   
##  5 OTHER              Primary.Language             0     0   
##  6 OTHER              Acuity                       0     0   
##  7 OTHER              Dispo                        0     0   
##  8 OTHER              Team.Assessment.             0     0   
##  9 HISPANIC OR LATINO Arrive.to.1st.Med.Given     32    12.1 
## 10 HISPANIC OR LATINO Payer.Type                  16     6.06
## # ... with 22 more rows
…
