BMIN503 Final Project: Subconscious Bias in Pregnancy: Unraveling the Influential Factors within a Healthcare System
…
#Create data frame by binding columns 
preg_desire.pred.values <-  bind_cols(     
  truth = preg_desire$MG_Responded_Desire, #Observed values of outcome var.
  predict(logreg_cls_fit, preg_desire), #predicted values of log. reg
  predict(logreg_cls_fit, preg_desire, type = "prob") #predicted probabilities of log reg
)
preg_desire.pred.values

# A tibble: 9,672 × 4
   truth .pred_class .pred_No .pred_Yes
   <fct> <fct>          <dbl>     <dbl>
 1 No    No             0.709    0.291 
 2 No    <NA>          NA       NA     
 3 No    No             0.920    0.0797
 4 No    <NA>          NA       NA     
 5 No    No             0.835    0.165 
 6 No    No             0.854    0.146 
 7 No    No             0.935    0.0653
 8 No    No             0.863    0.137 
 9 No    Yes            0.366    0.634 
10 No    No             0.941    0.0595
# ℹ 9,662 more rows
…
