Finalproject_Spartacode.utf8
…
library(ggplot2)

#ID sport with most number of scans - we see that it's Men's Lacrosse.
scans.by.sport <- sparta.scans %>%
  group_by(Group.s.) %>%
  summarise(n()) %>%
  arrange(desc(`n()`))

## `summarise()` ungrouping output (override with `.groups` argument)

print(scans.by.sport)

## # A tibble: 34 x 2
##    Group.s.         `n()`
##    <chr>            <int>
##  1 ""               11757
##  2 "Lacrosse (M)"     958
##  3 "Lacrosse (W)"     867
##  4 "Football"         811
##  5 "Rowing (W)"       553
##  6 "Baseball"         515
##  7 "Wrestling"        458
##  8 "Soccer (M)"       381
##  9 "Basketball (M)"   377
## 10 "Volleyball"       342
## # ... with 24 more rows
…
## [1] 35

#This table shows the number of scans per athlete, range 49-1
scans.per.athlete <- sparta.scans.clean %>%
  group_by(id.new) %>%
  summarise(n()) %>%
  arrange(desc(`n()`))

## `summarise()` ungrouping output (override with `.groups` argument)

print(scans.per.athlete)

## # A tibble: 35 x 2
##    id.new `n()`
##    <chr>  <int>
##  1 1         49
##  2 2         49
##  3 3         49
##  4 4         49
##  5 5         49
##  6 6         47
##  7 7         46
##  8 8         42
##  9 9         33
## 10 10        31
## # ... with 25 more rows
…
