When are we going home? An examination of provider discharge predictions in the NICU
…
Diagnosis information cleaning

dx_total <- clean_data %>% 
  group_by(visit_key) %>% #group by the patient IDs
  filter(est_number == 1) %>% #filter based off of first prediction
  ungroup() %>% 
  dplyr::select(dx1_icd10, dx2_icd10) %>% 
  gather(key = "source", value = "dx") %>% #place diagnoses in one column
  add_count(short_dx = substr(dx, 1, 5)) %>%  #look only at first 4 characters in the ICD codes
  mutate(n = ifelse(short_dx == "Z38.0", 0, n)) %>% #Z38.0 is a diagnosis I'm uninterested in (it describes birth status), so I want this removed
  distinct(dx, n) %>% #maintaining granularity, but eliminating our short column
  print()

## # A tibble: 355 x 2
##    dx         n
##    <chr>  <dbl>
##  1 Z38.01     0
##  2 I27.20     5
##  3 Z38.00     0
##  4 Z38.31    31
##  5 P27.1     29
##  6 J96.22     6
##  7 K56.50     3
##  8 P27.8     22
##  9 J21.0     32
## 10 J96.01    27
## # ... with 345 more rows
…
