BMIN503/EPID600 Final Project: Maternal Health in Philadelphia
…
# to look at the women who have different combinations of outcomes
outcome.data_clean %>%
  group_by(PRETERM, CSECTION, PREECLAMPSIA, HYPERTENSION, STILLBIRTH) %>%
  summarise(n = n())

## # A tibble: 29 x 6
## # Groups:   PRETERM, CSECTION, PREECLAMPSIA, HYPERTENSION [16]
##    PRETERM CSECTION PREECLAMPSIA HYPERTENSION STILLBIRTH     n
##      <dbl>    <dbl>        <dbl>        <dbl>      <dbl> <int>
##  1       0        0            0            0          0 15342
##  2       0        0            0            0          1   130
##  3       0        0            0            1          0  2142
##  4       0        0            0            1          1    21
##  5       0        0            1            0          0   605
##  6       0        0            1            0          1    13
##  7       0        0            1            1          0   340
##  8       0        0            1            1          1    10
##  9       0        1            0            0          0  6619
## 10       0        1            0            0          1    15
## # ... with 19 more rows
…
