determinants of liver steatosis
…
#to plot MeanDecreaseGini
plot3 <- rf_cls_fit_steatosis |>
  extract_fit_engine() |>
  vip()

#save
rf.predicted.steatosis <- bind_cols(
  truth = df$fibroscan_steatosis,
  predict(rf_cls_fit_steatosis, df),
  predict(rf_cls_fit_steatosis, df, type = "prob")
)

rf.predicted.steatosis

# A tibble: 6,119 × 4
   truth    .pred_class .pred_Cases .pred_Controls
   <fct>    <fct>             <dbl>          <dbl>
 1 Controls Controls          0.124          0.876
 2 Cases    Cases             0.624          0.376
 3 Controls Controls          0.089          0.911
 4 Controls Controls          0.194          0.806
 5 Cases    Cases             0.685          0.315
 6 Cases    Cases             0.781          0.219
 7 Controls Controls          0.229          0.771
 8 Cases    Cases             0.745          0.255
 9 Controls Controls          0.028          0.972
10 Cases    Cases             0.887          0.113
# ℹ 6,109 more rows
…
Testing based on RF model

data.rf.pred.values.test <-  bind_cols(
  truth = data.test$fibroscan_steatosis,
  predict(rf_cls_fit_train, data.test),
  predict(rf_cls_fit_train, data.test, type = "prob")
)

data.rf.pred.values.test

# A tibble: 1,224 × 4
   truth    .pred_class .pred_Cases .pred_Controls
   <fct>    <fct>             <dbl>          <dbl>
 1 Cases    Cases             0.901          0.099
 2 Cases    Cases             0.946          0.054
 3 Cases    Cases             0.939          0.061
 4 Controls Controls          0.081          0.919
 5 Controls Controls          0.009          0.991
 6 Controls Controls          0.039          0.961
 7 Cases    Cases             0.937          0.063
 8 Cases    Cases             0.978          0.022
 9 Controls Controls          0.074          0.926
10 Cases    Cases             0.951          0.049
# ℹ 1,214 more rows
…
#save
rf.predicted.cirrhosis <- bind_cols(
  truth = df$fibroscan_cirrhosis,
  predict(rf_cls_fit_cirrhosis, df),
  predict(rf_cls_fit_cirrhosis, df, type = "prob")
)

rf.predicted.cirrhosis

# A tibble: 6,119 × 4
   truth    .pred_class .pred_Cases .pred_Controls
   <fct>    <fct>             <dbl>          <dbl>
 1 Controls Controls          0              1    
 2 Controls Controls          0.002          0.998
 3 Controls Controls          0.002          0.998
 4 Controls Controls          0.004          0.996
 5 Controls Controls          0.002          0.998
 6 Controls Controls          0              1    
 7 Controls Controls          0.003          0.997
 8 Controls Controls          0.014          0.986
 9 Controls Controls          0              1    
10 Cases    Controls          0.483          0.517
# ℹ 6,109 more rows
…
Testing based on RF model

data.rf.pred.values.test <-  bind_cols(
  truth = data.test$fibroscan_cirrhosis,
  predict(rf_cls_fit_train, data.test),
  predict(rf_cls_fit_train, data.test, type = "prob")
)

data.rf.pred.values.test

# A tibble: 1,224 × 4
   truth    .pred_class .pred_Cases .pred_Controls
   <fct>    <fct>             <dbl>          <dbl>
 1 Controls Controls          0              1    
 2 Controls Controls          0              1    
 3 Controls Controls          0.002          0.998
 4 Controls Controls          0              1    
 5 Controls Controls          0              1    
 6 Controls Controls          0              1    
 7 Controls Controls          0              1    
 8 Controls Controls          0              1    
 9 Controls Controls          0.002          0.998
10 Controls Controls          0              1    
# ℹ 1,214 more rows
…
