Final_project_draft_Jetare
…
# Create a dataframe for Red blood cell transfusions only, that include only one row per transfusion.

df_RBCTransfusion <- joineddf %>% filter(PRODUCT_TYPE == "Red Cells") %>% select(MRN, TRANSFUSION_DATE, PRODUCT_TYPE) %>% unique(by =c(MRN, TRANSFUSION_DATE, PRODUCT_TYPE))

# Graph the number of transfusions per patient.

df_RBCTransfusion %>%
  group_by(MRN) %>%
  summarize(n=n())

## # A tibble: 7,597 x 2
##    MRN           n
##    <chr>     <int>
##  1 100006572     4
##  2 100009146    13
##  3 100014695     3
##  4 100018102     1
##  5 100020005     1
##  6 100021691     2
##  7 100022963     4
##  8 100023309     2
##  9 100027184     3
## 10 100032539     1
## # ... with 7,587 more rows
…
