FINAL PROJECT_YOU
…
admissions |> # validate code
  select(subject_id, hadm_id, admittime, nextadm30d, rehosp30d, nextadm60d, rehosp60d)

# A tibble: 431,231 × 7
   subject_id  hadm_id admittime           nextadm30d          rehosp30d
        <int>    <int> <dttm>              <dttm>              <fct>    
 1   10000032 22595853 2180-05-06 22:23:00 2180-06-06 17:15:00 0        
 2   10000032 22841357 2180-06-26 18:27:00 2180-07-27 18:49:00 1        
 3   10000032 29079034 2180-07-23 12:35:00 2180-08-24 17:55:00 1        
 4   10000032 25742920 2180-08-05 23:44:00 2180-09-06 17:50:00 0        
 5   10000068 25022803 2160-03-03 23:16:00 2160-04-03 06:26:00 0        
 6   10000084 23052089 2160-11-21 01:56:00 2160-12-25 14:52:00 0        
 7   10000084 29888819 2160-12-28 05:11:00 2161-01-27 16:07:00 0        
 8   10000108 27250926 2163-09-27 23:17:00 2163-10-28 09:04:00 0        
 9   10000117 22927623 2181-11-15 02:05:00 2181-12-15 14:52:00 0        
10   10000117 27988844 2183-09-18 18:10:00 2183-10-21 16:30:00 0        
# ℹ 431,221 more rows
# ℹ 2 more variables: nextadm60d <dttm>, rehosp60d <fct>
…
