BMIN503/EPID600 Project COVID-19 and its impact in Biotechnology and Medical Device Industry
…
for (i in 1:nrow(US.covidcase)) {US.covidcase$average.case[i]=mean(US.covidcase$increase.case[i:i+6])}
for (i in 341:346) {US.covidcase$average.case[i]=mean(US.covidcase$increase.case[341:345])}
for (i in 1:nrow(US.covidcase)) {US.covidcase$average.death[i]=mean(US.covidcase$increase.death[i:i+6])}
for (i in 341:346) {US.covidcase$average.death[i]=mean(US.covidcase$increase.death[341:345])}
#select valid covid data in 2020
US.covidcase

## # A tibble: 346 x 7
## # Groups:   date [346]
##    date       cases deaths increase.case increase.death average.case average.death
##    <chr>      <dbl>  <int>         <dbl>          <dbl>        <dbl>         <dbl>
##  1 2020-01-21 0.001      0         0                  0      0                   0
##  2 2020-01-22 0.001      0         0                  0      0                   0
##  3 2020-01-23 0.001      0         0.001              0      0.001               0
##  4 2020-01-24 0.002      0         0.001              0      0.001               0
##  5 2020-01-25 0.003      0         0.002              0      0.001               0
##  6 2020-01-26 0.005      0         0                  0      0.003               0
##  7 2020-01-27 0.005      0         0                  0      0                   0
##  8 2020-01-28 0.005      0         0                  0      0                   0
##  9 2020-01-29 0.005      0         0.001              0      0.00100             0
## 10 2020-01-30 0.006      0         0.001              0      0                   0
## # ... with 336 more rows
…
