Identifying Patients in the Hospital with Mental Health Conditions
…
## Identifying Patient Characteristics that automatically qualify the patient for a psychiatry consult
# Last PHQ-9 Score >= 20 (in past year) indicating severe depression
clean_data %>% group_by(screening_outcome,LAST_PHQ9_SCORE) %>% count() %>% arrange(desc(LAST_PHQ9_SCORE))

## # A tibble: 35 x 3
## # Groups:   screening_outcome, LAST_PHQ9_SCORE [35]
##    screening_outcome LAST_PHQ9_SCORE     n
##    <fct>                       <dbl> <int>
##  1 Positive                       26     1
##  2 Positive                       21     1
##  3 Negative                       21     1
##  4 Positive                       19     3
##  5 Positive                       18     1
##  6 Negative                       18     1
##  7 Positive                       16     2
##  8 Negative                       16     1
##  9 Positive                       15     1
## 10 Positive                       13     4
## # ... with 25 more rows
…
