Shekhar Data
…
shekhar.markers=FindAllMarkers(object = shekhar,only.pos = TRUE,min.pct = 0.25,thresh.use = 0.25)
shekhar.markers %>% group_by(cluster) %>% top_n(2,avg_diff)

## # A tibble: 26 x 6
## # Groups:   cluster [13]
##    p_val  avg_diff pct.1 pct.2 cluster   gene
##    <dbl>     <dbl> <dbl> <dbl>  <fctr>  <chr>
##  1     0 1.0282859 0.995 0.687       0  Trpm1
##  2     0 0.9322561 0.999 0.929       0  Calm1
##  3     0 0.8311519 1.000 0.929       1  Calm1
##  4     0 0.8057103 0.999 0.669       1   Pcp2
##  5     0 0.7338053 0.996 0.674       2   Pcp2
##  6     0 0.7259811 0.973 0.559       2   Chgb
##  7     0 2.9919414 0.969 0.135       3   Apoe
##  8     0 2.7037313 0.963 0.210       3   Glul
##  9     0 0.9482231 0.994 0.761       4 Atp2b1
## 10     0 0.7615514 0.750 0.427       4    Hlf
## # ... with 16 more rows
…
