…
cov.new <- filter (cov, gdp_pc<10000 & fatality>0.02)
cov.new <-select(cov.new,Country,fatality,gdp_pc)
cov.new<-cov.new %>% arrange(desc(fatality))

cov.new

## # A tibble: 41 x 3
##    Country     fatality gdp_pc
##    <chr>          <dbl>  <int>
##  1 Yemen         0.291    2700
##  2 Sudan         0.0763   2300
##  3 Ecuador       0.0724   7800
##  4 Chad          0.0629   1600
##  5 Egypt         0.0583   6200
##  6 Liberia       0.0547    500
##  7 Niger         0.0538    700
##  8 China         0.0514   7600
##  9 Peru          0.0376   9200
## 10 Afghanistan   0.0373    900
## # ... with 31 more rows
…
