medicare_enrollment_by_county
…
# A tibble: 5 × 2
   Year `sum(TOT_BENES, na.rm = TRUE)`
  <dbl>                          <dbl>
1  2017                         149448
2  2018                         152580
3  2019                         157092
4  2020                         158443
5  2021                         160617

med_enroll.diff <- select(filter(med_enroll, med_enroll$StateCounty %in% diff), c("Year", "TOT_BENES", "StateCounty"))
med_enroll.diff[order(-med_enroll.diff$TOT_BENES), ]

# A tibble: 633 × 3
    Year TOT_BENES StateCounty       
   <dbl>     <dbl> <chr>             
 1  2021     24635 LaSalle | Illinois
 2  2020     24400 LaSalle | Illinois
 3  2019     24110 LaSalle | Illinois
 4  2021     24029 LaPorte | Indiana 
 5  2020     23767 LaPorte | Indiana 
 6  2018     23728 LaSalle | Illinois
 7  2017     23390 LaSalle | Illinois
 8  2019     23326 LaPorte | Indiana 
 9  2018     22688 LaPorte | Indiana 
10  2017     22093 LaPorte | Indiana 
# … with 623 more rows
…
aco_enroll.diff <- select(filter(aco_enroll, aco_enroll$StateCounty %in% aco_diff), c("Year", "Tot_AB_Psn_Yrs", "StateCounty"))
aco_enroll.diff[order(-aco_enroll.diff$Tot_AB_Psn_Yrs), ]

# A tibble: 416 × 3
    Year Tot_AB_Psn_Yrs StateCounty        
   <dbl>          <dbl> <chr>              
 1  2020          5630. La Salle | Illinois
 2  2019          5578. La Salle | Illinois
 3  2018          5307. La Salle | Illinois
 4  2017          5008. La Salle | Illinois
 5  2021          4233. La Salle | Illinois
 6  2019          3626. La Porte | Indiana 
 7  2015          3560. La Porte | Indiana 
 8  2021          3498. La Porte | Indiana 
 9  2020          3420. La Porte | Indiana 
10  2018          3228. La Porte | Indiana 
# … with 406 more rows
…
