explore_nhc_compare
…
Time Lag of Observations

How often was the data collected in the historical time period? With what time lag? Is it the same thru 2017? Does adjustment matter? How does it relate to gross?

provider_info_tmp %>%
    group_by(provider_info_tmp$processing_date) %>%
    summarize(adj_total_hrs_per_day = median(adjusted_total_nurse_staffing_hours_per_resident_per_day, na.rm=TRUE))

# A tibble: 65 × 2
   `provider_info_tmp$processing_date` adj_total_hrs_per_day
   <date>                                              <dbl>
 1 2017-01-01                                           3.87
 2 2017-02-01                                           3.87
 3 2017-03-01                                           3.87
 4 2017-04-01                                           3.87
 5 2017-05-01                                           3.87
 6 2017-06-01                                           3.86
 7 2017-07-01                                           3.86
 8 2017-08-01                                           3.86
 9 2017-09-01                                           3.86
10 2017-10-01                                           3.85
# … with 55 more rows
…
